%YAML 1.1
%TAG !u! tag:unity3d.com,2011:
--- !u!114 &11400000
MonoBehaviour:
  m_ObjectHideFlags: 0
  m_CorrespondingSourceObject: {fileID: 0}
  m_PrefabInstance: {fileID: 0}
  m_PrefabAsset: {fileID: 0}
  m_GameObject: {fileID: 0}
  m_Enabled: 1
  m_EditorHideFlags: 0
  m_Script: {fileID: 11500000, guid: c6e17b1a0bd76f844a0c3a610adbc263, type: 3}
  m_Name: RecipeTortilla
  m_EditorClassIdentifier: 
  name: Tortilla
  _material:
  - _itme: {fileID: 4901433687200614022, guid: cfee0fbcf1d14c141b4a62c9fc14a61f, type: 3}
    _amount: 1
  - _itme: {fileID: 4901433687200614022, guid: 6c4b25290ba4600488bc3293df03d661, type: 3}
    _amount: 1
  - _itme: {fileID: 5113813491767046477, guid: 998c38759ccf7df469ce786d86e732b3, type: 3}
    _amount: 1
  _result: []
  _resultGameObject: {fileID: 6748936580051026703, guid: 953c5295f0a4f5e41bdd55d9c00fb231, type: 3}
