%YAML 1.1
%TAG !u! tag:unity3d.com,2011:
--- !u!114 &11400000
MonoBehaviour:
  m_ObjectHideFlags: 0
  m_CorrespondingSourceObject: {fileID: 0}
  m_PrefabInstance: {fileID: 0}
  m_PrefabAsset: {fileID: 0}
  m_GameObject: {fileID: 0}
  m_Enabled: 1
  m_EditorHideFlags: 0
  m_Script: {fileID: 11500000, guid: c6e17b1a0bd76f844a0c3a610adbc263, type: 3}
  m_Name: RecipePizze 2
  m_EditorClassIdentifier: 
  name: "\u0E1E\u0E34\u0E0B\u0E0B\u0E48\u0E32\u0E2B\u0E19\u0E49\u0E32\u0E01\u0E38\u0E49\u0E07"
  _material:
  - _itme: {fileID: 4901433687200614022, guid: cfee0fbcf1d14c141b4a62c9fc14a61f, type: 3}
    _amount: 2
  - _itme: {fileID: 4901433687200614022, guid: b39e7c046847404498f2e727d0d30f74, type: 3}
    _amount: 2
  - _itme: {fileID: 4901433687200614022, guid: c37eb54161d1cb5428107d796ab38c46, type: 3}
    _amount: 1
  _result: []
  _resultGameObject: {fileID: 6748936580051026703, guid: e2974050309ebb248868bf615d28bbc0, type: 3}
