%YAML 1.1
%TAG !u! tag:unity3d.com,2011:
--- !u!1 &2167582420106983787
GameObject:
  m_ObjectHideFlags: 0
  m_CorrespondingSourceObject: {fileID: 0}
  m_PrefabInstance: {fileID: 0}
  m_PrefabAsset: {fileID: 0}
  serializedVersion: 6
  m_Component:
  - component: {fileID: 5283879901530309885}
  - component: {fileID: 6154572247896381567}
  m_Layer: 0
  m_Name: Client 7
  m_TagString: Untagged
  m_Icon: {fileID: 0}
  m_NavMeshLayer: 0
  m_StaticEditorFlags: 0
  m_IsActive: 1
--- !u!4 &5283879901530309885
Transform:
  m_ObjectHideFlags: 0
  m_CorrespondingSourceObject: {fileID: 0}
  m_PrefabInstance: {fileID: 0}
  m_PrefabAsset: {fileID: 0}
  m_GameObject: {fileID: 2167582420106983787}
  m_LocalRotation: {x: 0, y: 0, z: 0, w: 1}
  m_LocalPosition: {x: 0, y: 0, z: 0}
  m_LocalScale: {x: 1, y: 1, z: 1}
  m_Children: []
  m_Father: {fileID: 0}
  m_RootOrder: 0
  m_LocalEulerAnglesHint: {x: 0, y: 0, z: 0}
--- !u!114 &6154572247896381567
MonoBehaviour:
  m_ObjectHideFlags: 0
  m_CorrespondingSourceObject: {fileID: 0}
  m_PrefabInstance: {fileID: 0}
  m_PrefabAsset: {fileID: 0}
  m_GameObject: {fileID: 2167582420106983787}
  m_Enabled: 1
  m_EditorHideFlags: 0
  m_Script: {fileID: 11500000, guid: 66d774bc2b9b329418b933d470c28462, type: 3}
  m_Name: 
  m_EditorClassIdentifier: 
  name: "\u0E40\u0E1E\u0E01\u0E01\u0E35 \u0E04\u0E32\u0E23\u0E4C\u0E40\u0E15\u0E2D\u0E23\u0E4C"
  _order:
  - _orderClientContainer:
    - _imageOrder: {fileID: 2800000, guid: a08864333b845074b80da2d628214ef4, type: 3}
      _order: 1
      _orderType: 0
    - _imageOrder: {fileID: 2800000, guid: 5597883905a1774428b789b46c02d3d6, type: 3}
      _order: 9
      _orderType: 1
    - _imageOrder: {fileID: 2800000, guid: a8b22cd79ff5d4f428e64b60be7e6b08, type: 3}
      _order: 19
      _orderType: 2
    _wave: 0
    _water: 0
  _listOrder: []
  _currentOrder:
    _orderClientContainer:
    - _imageOrder: {fileID: 2800000, guid: f2b15ef13f7e6f64398ce920d8a85c20, type: 3}
      _order: 1
      _orderType: 0
    - _imageOrder: {fileID: 2800000, guid: 5597883905a1774428b789b46c02d3d6, type: 3}
      _order: 9
      _orderType: 1
    - _imageOrder: {fileID: 2800000, guid: a8b22cd79ff5d4f428e64b60be7e6b08, type: 3}
      _order: 19
      _orderType: 2
    _wave: 0
    _water: 0
  _sound: {fileID: 8300000, guid: 855ec0b7d8f8f3e44a61ade8712a6705, type: 3}
