%YAML 1.1
%TAG !u! tag:unity3d.com,2011:
--- !u!114 &11400000
MonoBehaviour:
  m_ObjectHideFlags: 0
  m_CorrespondingSourceObject: {fileID: 0}
  m_PrefabInstance: {fileID: 0}
  m_PrefabAsset: {fileID: 0}
  m_GameObject: {fileID: 0}
  m_Enabled: 1
  m_EditorHideFlags: 0
  m_Script: {fileID: 11500000, guid: c6e17b1a0bd76f844a0c3a610adbc263, type: 3}
  m_Name: RecipeSalad
  m_EditorClassIdentifier: 
  name: "\u0E2A\u0E25\u0E31\u0E14\u0E01\u0E38\u0E49\u0E07"
  _material:
  - _itme: {fileID: 4901433687200614022, guid: b39e7c046847404498f2e727d0d30f74, type: 3}
    _amount: 1
  - _itme: {fileID: 4901433687200614022, guid: 044145ef85113604e975966e5f835f7a, type: 3}
    _amount: 1
  - _itme: {fileID: 4901433687200614022, guid: c37eb54161d1cb5428107d796ab38c46, type: 3}
    _amount: 1
  _result: []
  _resultGameObject: {fileID: 6748936580051026703, guid: 4e843be2990230b42a4827ae7b8ecadb, type: 3}
